…
#計算研究所薪資 / 大學薪資，並用此值在表格中新增一個欄位
#第一步:整理薪資資料
S106$`大學-薪資`<-gsub("—","",S106$`大學-薪資`)
S106$`大學-薪資`<-as.numeric(S106$`大學-薪資`)
S106$`研究所及以上-薪資`<-gsub("—","",S106$`研究所及以上-薪資`)
S106$`研究所及以上-薪資`<-as.numeric(S106$`研究所及以上-薪資`)
#第二步計算研究所薪資 / 大學薪資，並把空質刪除
S106$compare<-c(S106$`研究所及以上-薪資`/S106$`大學-薪資`)
na.omit(S106)
```

    ## # A tibble: 80 x 5
    ##    大職業別                      年度 `大學-薪資` `研究所及以上-薪資`~ compare
    ##    <chr>                        <dbl>       <dbl>             <dbl>   <dbl>
    ##  1 工業及服務業部門              2017       28446             33633    1.18
    ##  2 工業及服務業部門-專業人員     2017       32108             36778    1.15
    ##  3 工業及服務業部門-技術員及助理專業人員~  2017       28647             32424    1.13
    ##  4 工業及服務業部門-事務支援人員~  2017       26781             30799    1.15
    ##  5 工業部門                      2017       28263             33448    1.18
    ##  6 工業部門-專業人員             2017       31775             36640    1.15
    ##  7 工業部門-技術員及助理專業人員~  2017       28126             31853    1.13
    ##  8 工業部門-事務支援人員         2017       26662             30633    1.15
    ##  9 礦業及土石採取業              2017       27718             32734    1.18
    ## 10 礦業及土石採取業-專業人員     2017       35300             36193    1.03
    ## # ... with 70 more rows
…
